[
  {
    "owner": "carlos",
    "address": {
      "line1": "Flat 5",
      "line4": "7 Westbourne Terrace",
      "postCode": "W2 3UL",
      "city": "London",
      "country": "U.K."
    },
    "incomeGenerated": 2000.34
  },
  {
    "owner": "ankur",
    "address": {
      "line1": "4",
      "line2": "Tower Mansions",
      "line3": "Off Station road",
      "line4": "86-87 Grange Road",
      "postCode": "SE1 3BW",
      "city": "London",
      "country": "U.K."
    },
    "incomeGenerated": 1000
  },
  {
    "owner": "elaine",
    "address": {
      "line1": "4",
      "line2": "332b",
      "line4": "Goswell Road",
      "postCode": "EC1V 7LQ",
      "city": "London",
      "country": "U.K."
    },
    "incomeGenerated": 1200
  }
]
